E:\Programs\Projects\gateways\src\main\java\com\alatanasov\gateways\GatewaysApplication.java
E:\Programs\Projects\gateways\src\main\java\com\alatanasov\gateways\exception\InvalidIpAddressAdvice.java
E:\Programs\Projects\gateways\src\main\java\com\alatanasov\gateways\exception\GatewayNotFoundException.java
E:\Programs\Projects\gateways\src\main\java\com\alatanasov\gateways\exception\NoMoreDeviceAllowedAdvice.java
E:\Programs\Projects\gateways\src\main\java\com\alatanasov\gateways\exception\DeviceNotFoundAdvice.java
E:\Programs\Projects\gateways\src\main\java\com\alatanasov\gateways\model\Gateway.java
E:\Programs\Projects\gateways\src\main\java\com\alatanasov\gateways\exception\DeviceNotFoundException.java
E:\Programs\Projects\gateways\src\main\java\com\alatanasov\gateways\exception\InvalidIpAddressException.java
E:\Programs\Projects\gateways\src\main\java\com\alatanasov\gateways\repository\GatewayRepository.java
E:\Programs\Projects\gateways\src\main\java\com\alatanasov\gateways\model\Device.java
E:\Programs\Projects\gateways\src\main\java\com\alatanasov\gateways\rest\GatewayResource.java
E:\Programs\Projects\gateways\src\main\java\com\alatanasov\gateways\exception\GatewayNotFoundAdvice.java
E:\Programs\Projects\gateways\src\main\java\com\alatanasov\gateways\exception\NoMoreDeviceAllowedException.java
